﻿<?xml version='1.0' encoding='UTF-8'?>
<svg x="0px" y="0px" viewBox="0 0 32 32" version="1.1" xmlns="http://www.w3.org/2000/svg" xmlns:xlink="http://www.w3.org/1999/xlink" xml:space="preserve" id="Create_Exploded_Pie_Chart" style="enable-background:new 0 0 32 32">
  <style type="text/css">
	.Blue{fill:#1177D7;}
	.Red{fill:#D11C1C;}
</style>
  <path d="M14,2C6.3,2,0,8.3,0,16s6.3,14,14,14c3.9,0,7.4-1.6,9.9-4.1L14,16V2z" class="Red" />
  <path d="M18,0v14l9.9,9.9c2.5-2.5,4.1-6,4.1-9.9C32,6.3,25.7,0,18,0z" class="Blue" />
</svg>