﻿<?xml version='1.0' encoding='UTF-8'?>
<svg x="0px" y="0px" viewBox="0 0 32 32" version="1.1" xmlns="http://www.w3.org/2000/svg" xmlns:xlink="http://www.w3.org/1999/xlink" xml:space="preserve" id="SelectTableCell" style="enable-background:new 0 0 32 32">
  <style type="text/css">
	.Blue{fill:#1177D7;}
	.Black{fill:#727272;}
	.st0{opacity:0.5;}
</style>
  <rect x="12" y="12" width="8" height="6" rx="0" ry="0" class="Blue" />
  <g class="st0">
    <path d="M10,10H2V4h8V10z M20,4h-8v6h8V4z M30,4h-8v6h8V4z M10,12H2v6h8V12z M30,12h-8v6h8V12z M10,20H2v6h8V20z    M20,20h-8v6h8V20z M30,20h-8v6h8V20z" class="Black" />
  </g>
</svg>